<?xml version="1.0" encoding="UTF-8"?>
<sitemapindex
    xmlns="http://www.sitemaps.org/schemas/sitemap/0.9"
    xmlns:xhtml="http://www.w3.org/1999/xhtml"
    xmlns:xsi="http://www.w3.org/2001/XMLSchema-instance"
    xsi:schemaLocation="http://www.sitemaps.org/schemas/sitemap/0.9
                        http://www.sitemaps.org/schemas/sitemap/0.9/sitemap.xsd">
 <sitemap>
  <loc>https://nicolas471.gitlab.io/galleries/rss.xml</loc>
  <lastmod>2018-07-06T00:43:00Z</lastmod>
 </sitemap>
 <sitemap>
  <loc>https://nicolas471.gitlab.io/rss.xml</loc>
  <lastmod>2018-07-06T00:43:00Z</lastmod>
 </sitemap>
 <sitemap>
  <loc>https://nicolas471.gitlab.io/sitemap.xml</loc>
  <lastmod>2018-07-06T00:46:00Z</lastmod>
 </sitemap>
</sitemapindex>